{
	"pageDate" : "meta",
		"pageDate" : [
			{
				"no":"0",
				"pageID":"top",
				"name":"株式会社 会社名",
				"title":"株式会社 会社名",
				"keywords":"株式会社 会社名,web制作",
				"description":"株式会社 会社名です。"
			},
			{
				"no":"1",
				"pageID":"company",
				"name":"会社案内",
				"title":"会社案内 | 堂宮鈴木工務店 | 神社・仏閣の設計施工及び調査修復",
				"keywords":"会社案内,宮大工,社寺建築,寺院,神社,修理,修復,東京都",
				"description":"東京都台東区の社寺建築会社「株式会社 堂宮鈴木工務店」の実績をご紹介！寺院建築、神社建築、歴史的建造物の設計、建築、保存修理等の施工実績です。失われつつある日本伝統の木工技術で建物保全に努めます。こちらは会社案内ページです。"
			},
			{
				"no":"2",
				"pageID":"works",
				"name":"実績紹介",
				"title":"実績紹介 | 堂宮鈴木工務店 | 神社・仏閣の設計施工及び調査修復",
				"keywords":"実績紹介,宮大工,社寺建築,寺院,神社,修理,修復,東京都",
				"description":"東京都台東区の社寺建築会社「株式会社 堂宮鈴木工務店」の実績をご紹介！寺院建築、神社建築、歴史的建造物の設計、建築、保存修理等の施工実績です。失われつつある日本伝統の木工技術で建物保全に努めます。こちらは実績紹介です。"
			},
			{
				"no":"3",
				"pageID":"business",
				"name":"事業案内",
				"title":"事業案内 | 堂宮鈴木工務店 | 神社・仏閣の設計施工及び調査修復",
				"keywords":"事業案内,宮大工,社寺建築,寺院,神社,修理,修復,東京都",
				"description":"東京都台東区の社寺建築会社「株式会社 堂宮鈴木工務店」の実績をご紹介！寺院建築、神社建築、歴史的建造物の設計、建築、保存修理等の施工実績です。失われつつある日本伝統の木工技術で建物保全に努めます。こちらは事業案内です。"
			},
			{
				"no":"4",
				"pageID":"technique",
				"name":"匠の技",
				"title":"匠の技 | 堂宮鈴木工務店 | 神社・仏閣の設計施工及び調査修復",
				"keywords":"匠の技,宮大工,社寺建築,寺院,神社,修理,修復,東京都",
				"description":"東京都台東区の社寺建築会社「株式会社 堂宮鈴木工務店」の実績をご紹介！寺院建築、神社建築、歴史的建造物の設計、建築、保存修理等の施工実績です。失われつつある日本伝統の木工技術で建物保全に努めます。こちらは匠の技です。"
			},
			{
				"no":"5",
				"pageID":"process",
				"name":"作業工程",
				"title":"作業工程 | 堂宮鈴木工務店 | 神社・仏閣の設計施工及び調査修復",
				"keywords":"作業工程,宮大工,社寺建築,寺院,神社,修理,修復,東京都",
				"description":"東京都台東区の社寺建築会社「株式会社 堂宮鈴木工務店」の実績をご紹介！寺院建築、神社建築、歴史的建造物の設計、建築、保存修理等の施工実績です。失われつつある日本伝統の木工技術で建物保全に努めます。こちらは作業工程です。"
			},
			{
				"no":"6",
				"pageID":"contact",
				"name":"お問い合わせ",
				"title":"お問い合わせ | 堂宮鈴木工務店 | 神社・仏閣の設計施工及び調査修復",
				"keywords":"お問い合わせ,宮大工,社寺建築,寺院,神社,修理,修復,東京都",
				"description":"東京都台東区の社寺建築会社「株式会社 堂宮鈴木工務店」の実績をご紹介！寺院建築、神社建築、歴史的建造物の設計、建築、保存修理等の施工実績です。失われつつある日本伝統の木工技術で建物保全に努めます。こちらはお問い合わせです。"
			},
			{
				"no":"7",
				"pageID":"news",
				"name":"お知らせ",
				"title":"お知らせ | 堂宮鈴木工務店 | 神社・仏閣の設計施工及び調査修復",
				"keywords":"お知らせ,宮大工,社寺建築,寺院,神社,修理,修復,東京都",
				"description":"東京都台東区の社寺建築会社「株式会社 堂宮鈴木工務店」の実績をご紹介！寺院建築、神社建築、歴史的建造物の設計、建築、保存修理等の施工実績です。失われつつある日本伝統の木工技術で建物保全に努めます。こちらはお知らせです。"
			},
			{
				"no":"8",
				"pageID":"works",
				"name":"施工タイトルが入ります",
				"title":"施工タイトルが入ります | 堂宮鈴木工務店 | 神社・仏閣の設計施工及び調査修復",
				"keywords":"施工タイトルが入ります,宮大工,社寺建築,寺院,神社,修理,修復,東京都",
				"description":"東京都台東区の社寺建築会社「株式会社 堂宮鈴木工務店」の実績をご紹介！寺院建築、神社建築、歴史的建造物の設計、建築、保存修理等の施工実績です。失われつつある日本伝統の木工技術で建物保全に努めます。こちらは施工タイトルが入りますです。"
			}
		]
}

